{
    "page": 1,
    "per_page": 15,
    "photos": [
        {
            "id": 20440038,
            "width": 4000,
            "height": 6000,
            "url": "https://www.pexels.com/photo/a-bird-perched-on-a-branch-20440038/",
            "photographer": "Laura  Meinhardt",
            "photographer_url": "https://www.pexels.com/@leefinvrede",
            "photographer_id": 270922,
            "avg_color": "#827258",
            "src": {
                "original": "https://images.pexels.com/photos/20440038/pexels-photo-20440038.jpeg",
                "large2x": "https://images.pexels.com/photos/20440038/pexels-photo-20440038.jpeg?auto=compress&cs=tinysrgb&dpr=2&h=650&w=940",
                "large": "https://images.pexels.com/photos/20440038/pexels-photo-20440038.jpeg?auto=compress&cs=tinysrgb&h=650&w=940",
                "medium": "https://images.pexels.com/photos/20440038/pexels-photo-20440038.jpeg?auto=compress&cs=tinysrgb&h=350",
                "small": "https://images.pexels.com/photos/20440038/pexels-photo-20440038.jpeg?auto=compress&cs=tinysrgb&h=130",
                "portrait": "https://images.pexels.com/photos/20440038/pexels-photo-20440038.jpeg?auto=compress&cs=tinysrgb&fit=crop&h=1200&w=800",
                "landscape": "https://images.pexels.com/photos/20440038/pexels-photo-20440038.jpeg?auto=compress&cs=tinysrgb&fit=crop&h=627&w=1200",
                "tiny": "https://images.pexels.com/photos/20440038/pexels-photo-20440038.jpeg?auto=compress&cs=tinysrgb&dpr=1&fit=crop&h=200&w=280"
            },
            "liked": false,
            "alt": ""
        },
        {
            "id": 20434220,
            "width": 5152,
            "height": 6864,
            "url": "https://www.pexels.com/photo/a-bicycle-parked-outside-a-brick-house-20434220/",
            "photographer": "Melike  Benli",
            "photographer_url": "https://www.pexels.com/@mlkbnl",
            "photographer_id": 43043410,
            "avg_color": "#7A6B58",
            "src": {
                "original": "https://images.pexels.com/photos/20434220/pexels-photo-20434220.jpeg",
                "large2x": "https://images.pexels.com/photos/20434220/pexels-photo-20434220.jpeg?auto=compress&cs=tinysrgb&dpr=2&h=650&w=940",
                "large": "https://images.pexels.com/photos/20434220/pexels-photo-20434220.jpeg?auto=compress&cs=tinysrgb&h=650&w=940",
                "medium": "https://images.pexels.com/photos/20434220/pexels-photo-20434220.jpeg?auto=compress&cs=tinysrgb&h=350",
                "small": "https://images.pexels.com/photos/20434220/pexels-photo-20434220.jpeg?auto=compress&cs=tinysrgb&h=130",
                "portrait": "https://images.pexels.com/photos/20434220/pexels-photo-20434220.jpeg?auto=compress&cs=tinysrgb&fit=crop&h=1200&w=800",
                "landscape": "https://images.pexels.com/photos/20434220/pexels-photo-20434220.jpeg?auto=compress&cs=tinysrgb&fit=crop&h=627&w=1200",
                "tiny": "https://images.pexels.com/photos/20434220/pexels-photo-20434220.jpeg?auto=compress&cs=tinysrgb&dpr=1&fit=crop&h=200&w=280"
            },
            "liked": false,
            "alt": "A bicycle parked outside a brick house"
        },
        {
            "id": 20424669,
            "width": 4640,
            "height": 6960,
            "url": "https://www.pexels.com/photo/black-and-white-20424669/",
            "photographer": "Efrem  Efre",
            "photographer_url": "https://www.pexels.com/@efrem-efre-2786187",
            "photographer_id": 2786187,
            "avg_color": "#9E9E9E",
            "src": {
                "original": "https://images.pexels.com/photos/20424669/pexels-photo-20424669.jpeg",
                "large2x": "https://images.pexels.com/photos/20424669/pexels-photo-20424669.jpeg?auto=compress&cs=tinysrgb&dpr=2&h=650&w=940",
                "large": "https://images.pexels.com/photos/20424669/pexels-photo-20424669.jpeg?auto=compress&cs=tinysrgb&h=650&w=940",
                "medium": "https://images.pexels.com/photos/20424669/pexels-photo-20424669.jpeg?auto=compress&cs=tinysrgb&h=350",
                "small": "https://images.pexels.com/photos/20424669/pexels-photo-20424669.jpeg?auto=compress&cs=tinysrgb&h=130",
                "portrait": "https://images.pexels.com/photos/20424669/pexels-photo-20424669.jpeg?auto=compress&cs=tinysrgb&fit=crop&h=1200&w=800",
                "landscape": "https://images.pexels.com/photos/20424669/pexels-photo-20424669.jpeg?auto=compress&cs=tinysrgb&fit=crop&h=627&w=1200",
                "tiny": "https://images.pexels.com/photos/20424669/pexels-photo-20424669.jpeg?auto=compress&cs=tinysrgb&dpr=1&fit=crop&h=200&w=280"
            },
            "liked": false,
            "alt": "black and white "
        },
        {
            "id": 20348000,
            "width": 2736,
            "height": 3648,
            "url": "https://www.pexels.com/photo/eiffel-tower-in-paris-in-black-and-white-20348000/",
            "photographer": "Sophie Otto",
            "photographer_url": "https://www.pexels.com/@sophie-otto-774988927",
            "photographer_id": 774988927,
            "avg_color": "#8F8F8F",
            "src": {
                "original": "https://images.pexels.com/photos/20348000/pexels-photo-20348000.jpeg",
                "large2x": "https://images.pexels.com/photos/20348000/pexels-photo-20348000.jpeg?auto=compress&cs=tinysrgb&dpr=2&h=650&w=940",
                "large": "https://images.pexels.com/photos/20348000/pexels-photo-20348000.jpeg?auto=compress&cs=tinysrgb&h=650&w=940",
                "medium": "https://images.pexels.com/photos/20348000/pexels-photo-20348000.jpeg?auto=compress&cs=tinysrgb&h=350",
                "small": "https://images.pexels.com/photos/20348000/pexels-photo-20348000.jpeg?auto=compress&cs=tinysrgb&h=130",
                "portrait": "https://images.pexels.com/photos/20348000/pexels-photo-20348000.jpeg?auto=compress&cs=tinysrgb&fit=crop&h=1200&w=800",
                "landscape": "https://images.pexels.com/photos/20348000/pexels-photo-20348000.jpeg?auto=compress&cs=tinysrgb&fit=crop&h=627&w=1200",
                "tiny": "https://images.pexels.com/photos/20348000/pexels-photo-20348000.jpeg?auto=compress&cs=tinysrgb&dpr=1&fit=crop&h=200&w=280"
            },
            "liked": false,
            "alt": "Paris from the top of the eiffel tower"
        },
        {
            "id": 20345175,
            "width": 4105,
            "height": 6096,
            "url": "https://www.pexels.com/photo/view-of-the-railway-and-the-side-of-a-train-from-a-train-window-20345175/",
            "photographer": "Hatice Baran",
            "photographer_url": "https://www.pexels.com/@hatice-baran-153179658",
            "photographer_id": 153179658,
            "avg_color": "#747474",
            "src": {
                "original": "https://images.pexels.com/photos/20345175/pexels-photo-20345175.jpeg",
                "large2x": "https://images.pexels.com/photos/20345175/pexels-photo-20345175.jpeg?auto=compress&cs=tinysrgb&dpr=2&h=650&w=940",
                "large": "https://images.pexels.com/photos/20345175/pexels-photo-20345175.jpeg?auto=compress&cs=tinysrgb&h=650&w=940",
                "medium": "https://images.pexels.com/photos/20345175/pexels-photo-20345175.jpeg?auto=compress&cs=tinysrgb&h=350",
                "small": "https://images.pexels.com/photos/20345175/pexels-photo-20345175.jpeg?auto=compress&cs=tinysrgb&h=130",
                "portrait": "https://images.pexels.com/photos/20345175/pexels-photo-20345175.jpeg?auto=compress&cs=tinysrgb&fit=crop&h=1200&w=800",
                "landscape": "https://images.pexels.com/photos/20345175/pexels-photo-20345175.jpeg?auto=compress&cs=tinysrgb&fit=crop&h=627&w=1200",
                "tiny": "https://images.pexels.com/photos/20345175/pexels-photo-20345175.jpeg?auto=compress&cs=tinysrgb&dpr=1&fit=crop&h=200&w=280"
            },
            "liked": false,
            "alt": "Black and white photo of train tracks and wires"
        },
        {
            "id": 20344852,
            "width": 4160,
            "height": 6240,
            "url": "https://www.pexels.com/photo/woman-in-sweater-20344852/",
            "photographer": "Thanh  Luu",
            "photographer_url": "https://www.pexels.com/@thanh-luu-29104820",
            "photographer_id": 29104820,
            "avg_color": "#878B7A",
            "src": {
                "original": "https://images.pexels.com/photos/20344852/pexels-photo-20344852.jpeg",
                "large2x": "https://images.pexels.com/photos/20344852/pexels-photo-20344852.jpeg?auto=compress&cs=tinysrgb&dpr=2&h=650&w=940",
                "large": "https://images.pexels.com/photos/20344852/pexels-photo-20344852.jpeg?auto=compress&cs=tinysrgb&h=650&w=940",
                "medium": "https://images.pexels.com/photos/20344852/pexels-photo-20344852.jpeg?auto=compress&cs=tinysrgb&h=350",
                "small": "https://images.pexels.com/photos/20344852/pexels-photo-20344852.jpeg?auto=compress&cs=tinysrgb&h=130",
                "portrait": "https://images.pexels.com/photos/20344852/pexels-photo-20344852.jpeg?auto=compress&cs=tinysrgb&fit=crop&h=1200&w=800",
                "landscape": "https://images.pexels.com/photos/20344852/pexels-photo-20344852.jpeg?auto=compress&cs=tinysrgb&fit=crop&h=627&w=1200",
                "tiny": "https://images.pexels.com/photos/20344852/pexels-photo-20344852.jpeg?auto=compress&cs=tinysrgb&dpr=1&fit=crop&h=200&w=280"
            },
            "liked": false,
            "alt": "Free stock photo of blurred backgound, fashionista, portrait"
        },
        {
            "id": 20341343,
            "width": 5048,
            "height": 3367,
            "url": "https://www.pexels.com/photo/close-up-of-chameleon-20341343/",
            "photographer": "Amar  Preciado",
            "photographer_url": "https://www.pexels.com/@amar",
            "photographer_id": 2247381,
            "avg_color": "#45371D",
            "src": {
                "original": "https://images.pexels.com/photos/20341343/pexels-photo-20341343.jpeg",
                "large2x": "https://images.pexels.com/photos/20341343/pexels-photo-20341343.jpeg?auto=compress&cs=tinysrgb&dpr=2&h=650&w=940",
                "large": "https://images.pexels.com/photos/20341343/pexels-photo-20341343.jpeg?auto=compress&cs=tinysrgb&h=650&w=940",
                "medium": "https://images.pexels.com/photos/20341343/pexels-photo-20341343.jpeg?auto=compress&cs=tinysrgb&h=350",
                "small": "https://images.pexels.com/photos/20341343/pexels-photo-20341343.jpeg?auto=compress&cs=tinysrgb&h=130",
                "portrait": "https://images.pexels.com/photos/20341343/pexels-photo-20341343.jpeg?auto=compress&cs=tinysrgb&fit=crop&h=1200&w=800",
                "landscape": "https://images.pexels.com/photos/20341343/pexels-photo-20341343.jpeg?auto=compress&cs=tinysrgb&fit=crop&h=627&w=1200",
                "tiny": "https://images.pexels.com/photos/20341343/pexels-photo-20341343.jpeg?auto=compress&cs=tinysrgb&dpr=1&fit=crop&h=200&w=280"
            },
            "liked": false,
            "alt": "Free stock photo of animals, chameleon, green"
        },
        {
            "id": 20340989,
            "width": 4205,
            "height": 6307,
            "url": "https://www.pexels.com/photo/cat-next-to-fern-leaves-20340989/",
            "photographer": "Helena Jankovičová Kováčová",
            "photographer_url": "https://www.pexels.com/@helen1",
            "photographer_id": 3686880,
            "avg_color": "#4B4F3E",
            "src": {
                "original": "https://images.pexels.com/photos/20340989/pexels-photo-20340989.jpeg",
                "large2x": "https://images.pexels.com/photos/20340989/pexels-photo-20340989.jpeg?auto=compress&cs=tinysrgb&dpr=2&h=650&w=940",
                "large": "https://images.pexels.com/photos/20340989/pexels-photo-20340989.jpeg?auto=compress&cs=tinysrgb&h=650&w=940",
                "medium": "https://images.pexels.com/photos/20340989/pexels-photo-20340989.jpeg?auto=compress&cs=tinysrgb&h=350",
                "small": "https://images.pexels.com/photos/20340989/pexels-photo-20340989.jpeg?auto=compress&cs=tinysrgb&h=130",
                "portrait": "https://images.pexels.com/photos/20340989/pexels-photo-20340989.jpeg?auto=compress&cs=tinysrgb&fit=crop&h=1200&w=800",
                "landscape": "https://images.pexels.com/photos/20340989/pexels-photo-20340989.jpeg?auto=compress&cs=tinysrgb&fit=crop&h=627&w=1200",
                "tiny": "https://images.pexels.com/photos/20340989/pexels-photo-20340989.jpeg?auto=compress&cs=tinysrgb&dpr=1&fit=crop&h=200&w=280"
            },
            "liked": false,
            "alt": ""
        },
        {
            "id": 20333415,
            "width": 4160,
            "height": 6240,
            "url": "https://www.pexels.com/photo/deckchairs-and-umbrellas-on-beach-20333415/",
            "photographer": "Junchen Zhou",
            "photographer_url": "https://www.pexels.com/@tizzy",
            "photographer_id": 505010240,
            "avg_color": "#B4AAB5",
            "src": {
                "original": "https://images.pexels.com/photos/20333415/pexels-photo-20333415.jpeg",
                "large2x": "https://images.pexels.com/photos/20333415/pexels-photo-20333415.jpeg?auto=compress&cs=tinysrgb&dpr=2&h=650&w=940",
                "large": "https://images.pexels.com/photos/20333415/pexels-photo-20333415.jpeg?auto=compress&cs=tinysrgb&h=650&w=940",
                "medium": "https://images.pexels.com/photos/20333415/pexels-photo-20333415.jpeg?auto=compress&cs=tinysrgb&h=350",
                "small": "https://images.pexels.com/photos/20333415/pexels-photo-20333415.jpeg?auto=compress&cs=tinysrgb&h=130",
                "portrait": "https://images.pexels.com/photos/20333415/pexels-photo-20333415.jpeg?auto=compress&cs=tinysrgb&fit=crop&h=1200&w=800",
                "landscape": "https://images.pexels.com/photos/20333415/pexels-photo-20333415.jpeg?auto=compress&cs=tinysrgb&fit=crop&h=627&w=1200",
                "tiny": "https://images.pexels.com/photos/20333415/pexels-photo-20333415.jpeg?auto=compress&cs=tinysrgb&dpr=1&fit=crop&h=200&w=280"
            },
            "liked": false,
            "alt": "Two chairs and an umbrella on the beach"
        },
        {
            "id": 20332518,
            "width": 4000,
            "height": 6000,
            "url": "https://www.pexels.com/photo/close-up-of-tabby-cat-20332518/",
            "photographer": "Diogo Miranda",
            "photographer_url": "https://www.pexels.com/@diogo-miranda-2044514",
            "photographer_id": 2044514,
            "avg_color": "#7E7E76",
            "src": {
                "original": "https://images.pexels.com/photos/20332518/pexels-photo-20332518.jpeg",
                "large2x": "https://images.pexels.com/photos/20332518/pexels-photo-20332518.jpeg?auto=compress&cs=tinysrgb&dpr=2&h=650&w=940",
                "large": "https://images.pexels.com/photos/20332518/pexels-photo-20332518.jpeg?auto=compress&cs=tinysrgb&h=650&w=940",
                "medium": "https://images.pexels.com/photos/20332518/pexels-photo-20332518.jpeg?auto=compress&cs=tinysrgb&h=350",
                "small": "https://images.pexels.com/photos/20332518/pexels-photo-20332518.jpeg?auto=compress&cs=tinysrgb&h=130",
                "portrait": "https://images.pexels.com/photos/20332518/pexels-photo-20332518.jpeg?auto=compress&cs=tinysrgb&fit=crop&h=1200&w=800",
                "landscape": "https://images.pexels.com/photos/20332518/pexels-photo-20332518.jpeg?auto=compress&cs=tinysrgb&fit=crop&h=627&w=1200",
                "tiny": "https://images.pexels.com/photos/20332518/pexels-photo-20332518.jpeg?auto=compress&cs=tinysrgb&dpr=1&fit=crop&h=200&w=280"
            },
            "liked": false,
            "alt": "A cat with blue eyes looking at the camera"
        },
        {
            "id": 20331085,
            "width": 4160,
            "height": 6240,
            "url": "https://www.pexels.com/photo/young-woman-in-a-dress-posing-in-a-forest-20331085/",
            "photographer": "Alexander Mass",
            "photographer_url": "https://www.pexels.com/@alexander-mass-748453803",
            "photographer_id": 748453803,
            "avg_color": "#645F4B",
            "src": {
                "original": "https://images.pexels.com/photos/20331085/pexels-photo-20331085.jpeg",
                "large2x": "https://images.pexels.com/photos/20331085/pexels-photo-20331085.jpeg?auto=compress&cs=tinysrgb&dpr=2&h=650&w=940",
                "large": "https://images.pexels.com/photos/20331085/pexels-photo-20331085.jpeg?auto=compress&cs=tinysrgb&h=650&w=940",
                "medium": "https://images.pexels.com/photos/20331085/pexels-photo-20331085.jpeg?auto=compress&cs=tinysrgb&h=350",
                "small": "https://images.pexels.com/photos/20331085/pexels-photo-20331085.jpeg?auto=compress&cs=tinysrgb&h=130",
                "portrait": "https://images.pexels.com/photos/20331085/pexels-photo-20331085.jpeg?auto=compress&cs=tinysrgb&fit=crop&h=1200&w=800",
                "landscape": "https://images.pexels.com/photos/20331085/pexels-photo-20331085.jpeg?auto=compress&cs=tinysrgb&fit=crop&h=627&w=1200",
                "tiny": "https://images.pexels.com/photos/20331085/pexels-photo-20331085.jpeg?auto=compress&cs=tinysrgb&dpr=1&fit=crop&h=200&w=280"
            },
            "liked": false,
            "alt": ""
        },
        {
            "id": 20331087,
            "width": 4160,
            "height": 6240,
            "url": "https://www.pexels.com/photo/girls-in-dresses-sitting-on-a-meadow-in-a-forest-holding-a-book-and-a-small-mirror-20331087/",
            "photographer": "Alexander Mass",
            "photographer_url": "https://www.pexels.com/@alexander-mass-748453803",
            "photographer_id": 748453803,
            "avg_color": "#544F3C",
            "src": {
                "original": "https://images.pexels.com/photos/20331087/pexels-photo-20331087.jpeg",
                "large2x": "https://images.pexels.com/photos/20331087/pexels-photo-20331087.jpeg?auto=compress&cs=tinysrgb&dpr=2&h=650&w=940",
                "large": "https://images.pexels.com/photos/20331087/pexels-photo-20331087.jpeg?auto=compress&cs=tinysrgb&h=650&w=940",
                "medium": "https://images.pexels.com/photos/20331087/pexels-photo-20331087.jpeg?auto=compress&cs=tinysrgb&h=350",
                "small": "https://images.pexels.com/photos/20331087/pexels-photo-20331087.jpeg?auto=compress&cs=tinysrgb&h=130",
                "portrait": "https://images.pexels.com/photos/20331087/pexels-photo-20331087.jpeg?auto=compress&cs=tinysrgb&fit=crop&h=1200&w=800",
                "landscape": "https://images.pexels.com/photos/20331087/pexels-photo-20331087.jpeg?auto=compress&cs=tinysrgb&fit=crop&h=627&w=1200",
                "tiny": "https://images.pexels.com/photos/20331087/pexels-photo-20331087.jpeg?auto=compress&cs=tinysrgb&dpr=1&fit=crop&h=200&w=280"
            },
            "liked": false,
            "alt": "Two women in dresses sitting in the woods"
        },
        {
            "id": 20330740,
            "width": 4160,
            "height": 6240,
            "url": "https://www.pexels.com/photo/a-dog-with-light-brown-fur-sitting-on-a-meadow-20330740/",
            "photographer": "Umut Sarıalan",
            "photographer_url": "https://www.pexels.com/@umutart",
            "photographer_id": 420883934,
            "avg_color": "#424437",
            "src": {
                "original": "https://images.pexels.com/photos/20330740/pexels-photo-20330740.jpeg",
                "large2x": "https://images.pexels.com/photos/20330740/pexels-photo-20330740.jpeg?auto=compress&cs=tinysrgb&dpr=2&h=650&w=940",
                "large": "https://images.pexels.com/photos/20330740/pexels-photo-20330740.jpeg?auto=compress&cs=tinysrgb&h=650&w=940",
                "medium": "https://images.pexels.com/photos/20330740/pexels-photo-20330740.jpeg?auto=compress&cs=tinysrgb&h=350",
                "small": "https://images.pexels.com/photos/20330740/pexels-photo-20330740.jpeg?auto=compress&cs=tinysrgb&h=130",
                "portrait": "https://images.pexels.com/photos/20330740/pexels-photo-20330740.jpeg?auto=compress&cs=tinysrgb&fit=crop&h=1200&w=800",
                "landscape": "https://images.pexels.com/photos/20330740/pexels-photo-20330740.jpeg?auto=compress&cs=tinysrgb&fit=crop&h=627&w=1200",
                "tiny": "https://images.pexels.com/photos/20330740/pexels-photo-20330740.jpeg?auto=compress&cs=tinysrgb&dpr=1&fit=crop&h=200&w=280"
            },
            "liked": false,
            "alt": "A white dog sitting in the grass near a forest"
        },
        {
            "id": 20324813,
            "width": 3781,
            "height": 3781,
            "url": "https://www.pexels.com/photo/walls-in-building-interior-20324813/",
            "photographer": "King Panther",
            "photographer_url": "https://www.pexels.com/@king-panther-1025474644",
            "photographer_id": 1025474644,
            "avg_color": "#303026",
            "src": {
                "original": "https://images.pexels.com/photos/20324813/pexels-photo-20324813.jpeg",
                "large2x": "https://images.pexels.com/photos/20324813/pexels-photo-20324813.jpeg?auto=compress&cs=tinysrgb&dpr=2&h=650&w=940",
                "large": "https://images.pexels.com/photos/20324813/pexels-photo-20324813.jpeg?auto=compress&cs=tinysrgb&h=650&w=940",
                "medium": "https://images.pexels.com/photos/20324813/pexels-photo-20324813.jpeg?auto=compress&cs=tinysrgb&h=350",
                "small": "https://images.pexels.com/photos/20324813/pexels-photo-20324813.jpeg?auto=compress&cs=tinysrgb&h=130",
                "portrait": "https://images.pexels.com/photos/20324813/pexels-photo-20324813.jpeg?auto=compress&cs=tinysrgb&fit=crop&h=1200&w=800",
                "landscape": "https://images.pexels.com/photos/20324813/pexels-photo-20324813.jpeg?auto=compress&cs=tinysrgb&fit=crop&h=627&w=1200",
                "tiny": "https://images.pexels.com/photos/20324813/pexels-photo-20324813.jpeg?auto=compress&cs=tinysrgb&dpr=1&fit=crop&h=200&w=280"
            },
            "liked": false,
            "alt": ""
        },
        {
            "id": 20420447,
            "width": 4000,
            "height": 6000,
            "url": "https://www.pexels.com/photo/a-person-wearing-a-blue-hoodie-with-a-flower-in-their-pocket-20420447/",
            "photographer": "Dhilip Antony",
            "photographer_url": "https://www.pexels.com/@dhilip-antony-993686059",
            "photographer_id": 993686059,
            "avg_color": "#2B313F",
            "src": {
                "original": "https://images.pexels.com/photos/20420447/pexels-photo-20420447.jpeg",
                "large2x": "https://images.pexels.com/photos/20420447/pexels-photo-20420447.jpeg?auto=compress&cs=tinysrgb&dpr=2&h=650&w=940",
                "large": "https://images.pexels.com/photos/20420447/pexels-photo-20420447.jpeg?auto=compress&cs=tinysrgb&h=650&w=940",
                "medium": "https://images.pexels.com/photos/20420447/pexels-photo-20420447.jpeg?auto=compress&cs=tinysrgb&h=350",
                "small": "https://images.pexels.com/photos/20420447/pexels-photo-20420447.jpeg?auto=compress&cs=tinysrgb&h=130",
                "portrait": "https://images.pexels.com/photos/20420447/pexels-photo-20420447.jpeg?auto=compress&cs=tinysrgb&fit=crop&h=1200&w=800",
                "landscape": "https://images.pexels.com/photos/20420447/pexels-photo-20420447.jpeg?auto=compress&cs=tinysrgb&fit=crop&h=627&w=1200",
                "tiny": "https://images.pexels.com/photos/20420447/pexels-photo-20420447.jpeg?auto=compress&cs=tinysrgb&dpr=1&fit=crop&h=200&w=280"
            },
            "liked": false,
            "alt": "Free stock photo of aesthetic, aesthetic wallpaper, angel s breath flowers"
        }
    ],
    "total_results": 8000,
    "next_page": "https://api.pexels.com/v1/curated/?page=2&per_page=15"
}
